Cross Validate Plots
…
7. Cross Validation June 2017

plot_many(pricing_data = pricing_data,
          cutoff_date = "2017-06-01",
          params = params, 
          number_pairs = number_pairs)

## # A tibble: 28 x 3
##     coin_y   coin_x cointegration_stat
##      <chr>    <chr>              <dbl>
##  1 BTC_FCT  BTC_XMR          -7.378920
##  2 BTC_XMR  BTC_FCT          -7.077953
##  3 BTC_DCR  BTC_FCT          -6.466128
##  4 BTC_DCR BTC_DASH          -6.224558
##  5 BTC_DCR  BTC_XMR          -6.086557
##  6 BTC_DCR  BTC_LTC          -6.044346
##  7 BTC_DCR  BTC_REP          -6.012694
##  8 BTC_DCR  BTC_ETH          -5.909888
##  9 BTC_DCR  BTC_ZEC          -5.905338
## 10 BTC_DCR  BTC_LSK          -5.891460
## # ... with 18 more rows
## [1] "Creating plots for BTC_FCT and BTC_XMR."
## [1] "Using train set from 2017-05-02 to 2017-06-01."
## [1] "Using test set from 2017-06-01 to 2017-06-21."
…
