Examine Tuning Parameters
…
6.1 Filter Results

multiple <- params %>% 
  filter(time_resolution == 300, 
         spread_type == "rolling", 
         signal_logic == "scaled") %>% 
  mutate(train_window = as.numeric(str_match(train_window, "(\\d*)d*")[, 2]), 
         test_window = as.numeric(str_match(test_window, "(\\d*)d*")[, 2]), 
         model_spread_type = str_c(model_type, " ", spread_type), 
         rolling_window_days = rolling_window * time_resolution / 60 / 60 / 24, 
         time_resolution = factor(time_resolution), 
         signal_scaled_enter = factor(signal_scaled_enter))
print(multiple)

## # A tibble: 328 x 23
##    time_resolution quote_currency cointegration_test adf_threshold
##             <fctr>          <chr>              <chr>         <dbl>
##  1             300           USDT                 eg         -3.40
##  2             300           USDT                 eg         -2.90
##  3             300           USDT           distance         -2.55
##  4             300           USDT           distance         -3.90
##  5             300           USDT                 eg         -2.25
##  6             300           USDT                 eg         -3.05
##  7             300           USDT                 eg         -2.15
##  8             300           USDT                 eg         -2.95
##  9             300           USDT                 eg         -3.20
## 10             300            BTC                 eg         -2.40
## # ... with 318 more rows, and 19 more variables: distance_threshold <dbl>,
## #   train_window <dbl>, test_window <dbl>, model_type <chr>,
## #   spread_type <chr>, rolling_window <int>, signal_logic <chr>,
## #   signal_scaled_enter <fctr>, signal_discrete_enter <dbl>,
## #   signal_discrete_exit <dbl>, signal_stop <dbl>, signal_reenter <lgl>,
## #   signal_reenter_threshold <dbl>, pair_allocation <chr>,
## #   pair_allocation_scaling <dbl>, overall_return <dbl>,
## #   regression_type <chr>, model_spread_type <chr>,
## #   rolling_window_days <dbl>
…
