Test Cointegration
…
3. Spread Data

pricing_data_a <- pricing_data %>% 
  filter(period == "86400", 
         date_time >= "2017-04-01") %>% 
  select(date_unix, date_time, close, currency_pair) %>% 
  spread(currency_pair, close)
print(pricing_data_a)

## # A tibble: 187 x 17
##     date_unix  date_time   BTC_DASH    BTC_ETH    BTC_LTC    BTC_REP
##  *      <int>     <dttm>      <dbl>      <dbl>      <dbl>      <dbl>
##  1 1491091200 2017-04-02 0.05100000 0.04370309 0.00755290 0.01051524
##  2 1491177600 2017-04-03 0.05499499 0.03819766 0.00749999 0.00950603
##  3 1491264000 2017-04-04 0.06040060 0.03877701 0.00800000 0.00975750
##  4 1491350400 2017-04-05 0.06596799 0.03969998 0.01097992 0.00922400
##  5 1491436800 2017-04-06 0.05626999 0.03618000 0.00909025 0.00880000
##  6 1491523200 2017-04-07 0.05628618 0.03528362 0.00835933 0.00807700
##  7 1491609600 2017-04-08 0.05751002 0.03747400 0.00905251 0.00841505
##  8 1491696000 2017-04-09 0.05452689 0.03609801 0.00769989 0.00841110
##  9 1491782400 2017-04-10 0.05192000 0.03615636 0.00817772 0.00849440
## 10 1491868800 2017-04-11 0.05046000 0.03569304 0.00793999 0.00833648
## # ... with 177 more rows, and 11 more variables: BTC_XEM <dbl>,
## #   BTC_XMR <dbl>, BTC_ZEC <dbl>, USDT_BTC <dbl>, USDT_DASH <dbl>,
## #   USDT_ETH <dbl>, USDT_LTC <dbl>, USDT_REP <dbl>, USDT_XEM <dbl>,
## #   USDT_XMR <dbl>, USDT_ZEC <dbl>
…
