Cross Validate Strategy
…
11. One Period Cross Validation A

This section displays results from cointegrated coin pairs selected from a training set comprised of data from July 1, 2017 to September 1, 2017. The model is fit using the training set and evaluated on a test set comprised data from September 1, 2017 to September 30, 2017.

train <- prepare_data(df = pricing_data, time_resolution = 7200, start_date = "2017-07-01", end_date = "2017-09-01") 
test <- prepare_data(df = pricing_data, time_resolution = 7200, start_date = "2017-09-01", end_date = "2017-09-30") 
cointegrated_coins <- select_pairs(train = train, coin_pairs = create_pairs()) 
print(cointegrated_coins)

## # A tibble: 29 x 3
##       coin_y    coin_x  adf_stat
##        <chr>     <chr>     <dbl>
##  1  USDT_REP  USDT_ZEC -5.044676
##  2  USDT_ZEC  USDT_REP -4.961635
##  3   BTC_ZEC   BTC_REP -4.716421
##  4   BTC_REP   BTC_ZEC -4.706934
##  5   BTC_ZEC   BTC_LTC -3.773975
##  6   BTC_REP   BTC_LTC -3.699705
##  7 USDT_DASH  USDT_XMR -3.588890
##  8  USDT_XMR USDT_DASH -3.456707
##  9  USDT_ZEC  USDT_LTC -3.381295
## 10   BTC_ETH   BTC_LTC -3.365070
## # ... with 19 more rows
…
12. One Period Cross Validation B

This section displays results from cointegrated coin pairs selected from a training set comprised of data from May 1, 2017 to July 1, 2017. The model is fit using the training set and evaluated on a test set comprised data from July 1, 2017 to July 31, 2017.

train <- prepare_data(df = pricing_data, time_resolution = 7200, start_date = "2017-05-01", end_date = "2017-07-01") 
test <- prepare_data(df = pricing_data, time_resolution = 7200, start_date = "2017-07-01", end_date = "2017-07-31") 
cointegrated_coins <- select_pairs(train = train, coin_pairs = create_pairs()) 
print(cointegrated_coins)

## # A tibble: 48 x 3
##      coin_y   coin_x  adf_stat
##       <chr>    <chr>     <dbl>
##  1 USDT_XMR USDT_REP -5.619334
##  2 USDT_REP USDT_XMR -5.517769
##  3  BTC_XMR  BTC_REP -5.395526
##  4  BTC_REP  BTC_XMR -5.076265
##  5 USDT_XMR USDT_BTC -5.035287
##  6 USDT_BTC USDT_XMR -4.962989
##  7  BTC_XMR  BTC_ETH -4.777139
##  8  BTC_XMR  BTC_ZEC -4.724153
##  9  BTC_ZEC  BTC_ETH -4.330944
## 10  BTC_ETH  BTC_ZEC -4.178227
## # ... with 38 more rows
…
